%!PS-Adobe EPSF-3.0
%%Creator: VSAN-NEARS-CEB
%%Title: _QRcode
%%CreationDate: 2016-05-25
%%DocumentData: Clean7Bit
%%LanguageLevel: 2
%%Pages: 1
%%BoundingBox: 0 0 492 492
12 12 scale
2 2 translate
/F { rectfill } def
1 1 1 setrgbcolor
-2 -2 41 41 F
0 0 0 setrgbcolor
0 36 1 1 F
1 36 1 1 F
2 36 1 1 F
3 36 1 1 F
4 36 1 1 F
5 36 1 1 F
6 36 1 1 F
8 36 1 1 F
11 36 1 1 F
12 36 1 1 F
15 36 1 1 F
18 36 1 1 F
19 36 1 1 F
23 36 1 1 F
24 36 1 1 F
25 36 1 1 F
26 36 1 1 F
30 36 1 1 F
31 36 1 1 F
32 36 1 1 F
33 36 1 1 F
34 36 1 1 F
35 36 1 1 F
36 36 1 1 F
0 35 1 1 F
6 35 1 1 F
9 35 1 1 F
14 35 1 1 F
18 35 1 1 F
20 35 1 1 F
21 35 1 1 F
22 35 1 1 F
23 35 1 1 F
24 35 1 1 F
30 35 1 1 F
36 35 1 1 F
0 34 1 1 F
2 34 1 1 F
3 34 1 1 F
4 34 1 1 F
6 34 1 1 F
8 34 1 1 F
9 34 1 1 F
12 34 1 1 F
16 34 1 1 F
17 34 1 1 F
18 34 1 1 F
19 34 1 1 F
20 34 1 1 F
24 34 1 1 F
26 34 1 1 F
27 34 1 1 F
30 34 1 1 F
32 34 1 1 F
33 34 1 1 F
34 34 1 1 F
36 34 1 1 F
0 33 1 1 F
2 33 1 1 F
3 33 1 1 F
4 33 1 1 F
6 33 1 1 F
9 33 1 1 F
12 33 1 1 F
14 33 1 1 F
16 33 1 1 F
17 33 1 1 F
19 33 1 1 F
23 33 1 1 F
24 33 1 1 F
25 33 1 1 F
28 33 1 1 F
30 33 1 1 F
32 33 1 1 F
33 33 1 1 F
34 33 1 1 F
36 33 1 1 F
0 32 1 1 F
2 32 1 1 F
3 32 1 1 F
4 32 1 1 F
6 32 1 1 F
8 32 1 1 F
10 32 1 1 F
12 32 1 1 F
13 32 1 1 F
14 32 1 1 F
16 32 1 1 F
18 32 1 1 F
19 32 1 1 F
21 32 1 1 F
25 32 1 1 F
26 32 1 1 F
30 32 1 1 F
32 32 1 1 F
33 32 1 1 F
34 32 1 1 F
36 32 1 1 F
0 31 1 1 F
6 31 1 1 F
11 31 1 1 F
13 31 1 1 F
16 31 1 1 F
17 31 1 1 F
19 31 1 1 F
20 31 1 1 F
21 31 1 1 F
22 31 1 1 F
23 31 1 1 F
25 31 1 1 F
26 31 1 1 F
28 31 1 1 F
30 31 1 1 F
36 31 1 1 F
0 30 1 1 F
1 30 1 1 F
2 30 1 1 F
3 30 1 1 F
4 30 1 1 F
5 30 1 1 F
6 30 1 1 F
8 30 1 1 F
10 30 1 1 F
12 30 1 1 F
14 30 1 1 F
16 30 1 1 F
18 30 1 1 F
20 30 1 1 F
22 30 1 1 F
24 30 1 1 F
26 30 1 1 F
28 30 1 1 F
30 30 1 1 F
31 30 1 1 F
32 30 1 1 F
33 30 1 1 F
34 30 1 1 F
35 30 1 1 F
36 30 1 1 F
8 29 1 1 F
9 29 1 1 F
11 29 1 1 F
14 29 1 1 F
17 29 1 1 F
19 29 1 1 F
25 29 1 1 F
27 29 1 1 F
28 29 1 1 F
5 28 1 1 F
6 28 1 1 F
12 28 1 1 F
16 28 1 1 F
17 28 1 1 F
18 28 1 1 F
19 28 1 1 F
21 28 1 1 F
22 28 1 1 F
23 28 1 1 F
26 28 1 1 F
30 28 1 1 F
32 28 1 1 F
34 28 1 1 F
36 28 1 1 F
3 27 1 1 F
4 27 1 1 F
5 27 1 1 F
13 27 1 1 F
14 27 1 1 F
16 27 1 1 F
17 27 1 1 F
18 27 1 1 F
19 27 1 1 F
23 27 1 1 F
24 27 1 1 F
25 27 1 1 F
26 27 1 1 F
28 27 1 1 F
29 27 1 1 F
30 27 1 1 F
31 27 1 1 F
33 27 1 1 F
34 27 1 1 F
0 26 1 1 F
1 26 1 1 F
3 26 1 1 F
4 26 1 1 F
6 26 1 1 F
7 26 1 1 F
8 26 1 1 F
9 26 1 1 F
11 26 1 1 F
12 26 1 1 F
13 26 1 1 F
14 26 1 1 F
15 26 1 1 F
16 26 1 1 F
23 26 1 1 F
25 26 1 1 F
26 26 1 1 F
27 26 1 1 F
28 26 1 1 F
30 26 1 1 F
31 26 1 1 F
32 26 1 1 F
33 26 1 1 F
35 26 1 1 F
36 26 1 1 F
0 25 1 1 F
3 25 1 1 F
8 25 1 1 F
10 25 1 1 F
12 25 1 1 F
13 25 1 1 F
15 25 1 1 F
17 25 1 1 F
20 25 1 1 F
22 25 1 1 F
23 25 1 1 F
24 25 1 1 F
26 25 1 1 F
30 25 1 1 F
32 25 1 1 F
35 25 1 1 F
0 24 1 1 F
3 24 1 1 F
4 24 1 1 F
6 24 1 1 F
8 24 1 1 F
9 24 1 1 F
11 24 1 1 F
12 24 1 1 F
13 24 1 1 F
14 24 1 1 F
16 24 1 1 F
19 24 1 1 F
20 24 1 1 F
22 24 1 1 F
23 24 1 1 F
24 24 1 1 F
28 24 1 1 F
30 24 1 1 F
31 24 1 1 F
34 24 1 1 F
35 24 1 1 F
36 24 1 1 F
0 23 1 1 F
1 23 1 1 F
5 23 1 1 F
7 23 1 1 F
9 23 1 1 F
11 23 1 1 F
12 23 1 1 F
13 23 1 1 F
14 23 1 1 F
16 23 1 1 F
18 23 1 1 F
19 23 1 1 F
25 23 1 1 F
27 23 1 1 F
28 23 1 1 F
29 23 1 1 F
31 23 1 1 F
34 23 1 1 F
0 22 1 1 F
1 22 1 1 F
3 22 1 1 F
4 22 1 1 F
6 22 1 1 F
8 22 1 1 F
11 22 1 1 F
14 22 1 1 F
15 22 1 1 F
19 22 1 1 F
23 22 1 1 F
26 22 1 1 F
27 22 1 1 F
28 22 1 1 F
29 22 1 1 F
31 22 1 1 F
32 22 1 1 F
33 22 1 1 F
35 22 1 1 F
36 22 1 1 F
0 21 1 1 F
1 21 1 1 F
4 21 1 1 F
11 21 1 1 F
12 21 1 1 F
14 21 1 1 F
17 21 1 1 F
18 21 1 1 F
20 21 1 1 F
21 21 1 1 F
22 21 1 1 F
24 21 1 1 F
26 21 1 1 F
27 21 1 1 F
31 21 1 1 F
33 21 1 1 F
34 21 1 1 F
35 21 1 1 F
36 21 1 1 F
0 20 1 1 F
4 20 1 1 F
6 20 1 1 F
7 20 1 1 F
8 20 1 1 F
9 20 1 1 F
10 20 1 1 F
11 20 1 1 F
15 20 1 1 F
16 20 1 1 F
17 20 1 1 F
18 20 1 1 F
19 20 1 1 F
20 20 1 1 F
21 20 1 1 F
22 20 1 1 F
25 20 1 1 F
26 20 1 1 F
28 20 1 1 F
29 20 1 1 F
30 20 1 1 F
32 20 1 1 F
34 20 1 1 F
35 20 1 1 F
36 20 1 1 F
0 19 1 1 F
3 19 1 1 F
4 19 1 1 F
7 19 1 1 F
10 19 1 1 F
11 19 1 1 F
12 19 1 1 F
16 19 1 1 F
19 19 1 1 F
21 19 1 1 F
22 19 1 1 F
23 19 1 1 F
24 19 1 1 F
27 19 1 1 F
28 19 1 1 F
33 19 1 1 F
34 19 1 1 F
5 18 1 1 F
6 18 1 1 F
7 18 1 1 F
8 18 1 1 F
9 18 1 1 F
11 18 1 1 F
15 18 1 1 F
18 18 1 1 F
19 18 1 1 F
20 18 1 1 F
25 18 1 1 F
26 18 1 1 F
27 18 1 1 F
28 18 1 1 F
29 18 1 1 F
30 18 1 1 F
33 18 1 1 F
36 18 1 1 F
1 17 1 1 F
4 17 1 1 F
5 17 1 1 F
8 17 1 1 F
9 17 1 1 F
11 17 1 1 F
13 17 1 1 F
15 17 1 1 F
20 17 1 1 F
21 17 1 1 F
22 17 1 1 F
24 17 1 1 F
29 17 1 1 F
33 17 1 1 F
0 16 1 1 F
1 16 1 1 F
2 16 1 1 F
4 16 1 1 F
6 16 1 1 F
9 16 1 1 F
10 16 1 1 F
14 16 1 1 F
16 16 1 1 F
17 16 1 1 F
19 16 1 1 F
24 16 1 1 F
25 16 1 1 F
26 16 1 1 F
27 16 1 1 F
29 16 1 1 F
30 16 1 1 F
31 16 1 1 F
32 16 1 1 F
33 16 1 1 F
34 16 1 1 F
36 16 1 1 F
1 15 1 1 F
2 15 1 1 F
5 15 1 1 F
7 15 1 1 F
9 15 1 1 F
10 15 1 1 F
11 15 1 1 F
12 15 1 1 F
15 15 1 1 F
16 15 1 1 F
18 15 1 1 F
20 15 1 1 F
23 15 1 1 F
24 15 1 1 F
27 15 1 1 F
28 15 1 1 F
31 15 1 1 F
32 15 1 1 F
33 15 1 1 F
0 14 1 1 F
1 14 1 1 F
4 14 1 1 F
5 14 1 1 F
6 14 1 1 F
8 14 1 1 F
9 14 1 1 F
11 14 1 1 F
13 14 1 1 F
16 14 1 1 F
19 14 1 1 F
21 14 1 1 F
23 14 1 1 F
24 14 1 1 F
27 14 1 1 F
29 14 1 1 F
30 14 1 1 F
34 14 1 1 F
35 14 1 1 F
36 14 1 1 F
0 13 1 1 F
3 13 1 1 F
9 13 1 1 F
10 13 1 1 F
12 13 1 1 F
15 13 1 1 F
16 13 1 1 F
17 13 1 1 F
18 13 1 1 F
19 13 1 1 F
20 13 1 1 F
23 13 1 1 F
24 13 1 1 F
26 13 1 1 F
27 13 1 1 F
29 13 1 1 F
30 13 1 1 F
31 13 1 1 F
33 13 1 1 F
35 13 1 1 F
36 13 1 1 F
1 12 1 1 F
3 12 1 1 F
6 12 1 1 F
7 12 1 1 F
8 12 1 1 F
11 12 1 1 F
12 12 1 1 F
13 12 1 1 F
14 12 1 1 F
15 12 1 1 F
17 12 1 1 F
20 12 1 1 F
23 12 1 1 F
25 12 1 1 F
26 12 1 1 F
28 12 1 1 F
29 12 1 1 F
31 12 1 1 F
33 12 1 1 F
35 12 1 1 F
0 11 1 1 F
2 11 1 1 F
3 11 1 1 F
4 11 1 1 F
8 11 1 1 F
9 11 1 1 F
10 11 1 1 F
13 11 1 1 F
17 11 1 1 F
19 11 1 1 F
22 11 1 1 F
24 11 1 1 F
25 11 1 1 F
26 11 1 1 F
31 11 1 1 F
0 10 1 1 F
4 10 1 1 F
6 10 1 1 F
8 10 1 1 F
12 10 1 1 F
13 10 1 1 F
15 10 1 1 F
18 10 1 1 F
20 10 1 1 F
21 10 1 1 F
22 10 1 1 F
27 10 1 1 F
28 10 1 1 F
30 10 1 1 F
33 10 1 1 F
35 10 1 1 F
36 10 1 1 F
0 9 1 1 F
4 9 1 1 F
5 9 1 1 F
7 9 1 1 F
8 9 1 1 F
9 9 1 1 F
12 9 1 1 F
14 9 1 1 F
15 9 1 1 F
16 9 1 1 F
17 9 1 1 F
19 9 1 1 F
20 9 1 1 F
22 9 1 1 F
24 9 1 1 F
27 9 1 1 F
28 9 1 1 F
29 9 1 1 F
34 9 1 1 F
0 8 1 1 F
4 8 1 1 F
6 8 1 1 F
8 8 1 1 F
10 8 1 1 F
12 8 1 1 F
16 8 1 1 F
17 8 1 1 F
20 8 1 1 F
24 8 1 1 F
25 8 1 1 F
26 8 1 1 F
27 8 1 1 F
28 8 1 1 F
29 8 1 1 F
30 8 1 1 F
31 8 1 1 F
32 8 1 1 F
33 8 1 1 F
34 8 1 1 F
35 8 1 1 F
8 7 1 1 F
9 7 1 1 F
11 7 1 1 F
12 7 1 1 F
14 7 1 1 F
16 7 1 1 F
18 7 1 1 F
21 7 1 1 F
23 7 1 1 F
26 7 1 1 F
28 7 1 1 F
32 7 1 1 F
33 7 1 1 F
35 7 1 1 F
0 6 1 1 F
1 6 1 1 F
2 6 1 1 F
3 6 1 1 F
4 6 1 1 F
5 6 1 1 F
6 6 1 1 F
9 6 1 1 F
11 6 1 1 F
15 6 1 1 F
16 6 1 1 F
18 6 1 1 F
19 6 1 1 F
21 6 1 1 F
23 6 1 1 F
25 6 1 1 F
28 6 1 1 F
30 6 1 1 F
32 6 1 1 F
33 6 1 1 F
34 6 1 1 F
36 6 1 1 F
0 5 1 1 F
6 5 1 1 F
8 5 1 1 F
11 5 1 1 F
12 5 1 1 F
13 5 1 1 F
15 5 1 1 F
20 5 1 1 F
21 5 1 1 F
23 5 1 1 F
26 5 1 1 F
28 5 1 1 F
32 5 1 1 F
33 5 1 1 F
36 5 1 1 F
0 4 1 1 F
2 4 1 1 F
3 4 1 1 F
4 4 1 1 F
6 4 1 1 F
9 4 1 1 F
11 4 1 1 F
13 4 1 1 F
16 4 1 1 F
19 4 1 1 F
20 4 1 1 F
21 4 1 1 F
23 4 1 1 F
24 4 1 1 F
25 4 1 1 F
27 4 1 1 F
28 4 1 1 F
29 4 1 1 F
30 4 1 1 F
31 4 1 1 F
32 4 1 1 F
34 4 1 1 F
35 4 1 1 F
36 4 1 1 F
0 3 1 1 F
2 3 1 1 F
3 3 1 1 F
4 3 1 1 F
6 3 1 1 F
12 3 1 1 F
13 3 1 1 F
14 3 1 1 F
15 3 1 1 F
17 3 1 1 F
18 3 1 1 F
20 3 1 1 F
26 3 1 1 F
30 3 1 1 F
33 3 1 1 F
34 3 1 1 F
0 2 1 1 F
2 2 1 1 F
3 2 1 1 F
4 2 1 1 F
6 2 1 1 F
9 2 1 1 F
10 2 1 1 F
11 2 1 1 F
13 2 1 1 F
15 2 1 1 F
17 2 1 1 F
19 2 1 1 F
20 2 1 1 F
23 2 1 1 F
24 2 1 1 F
28 2 1 1 F
29 2 1 1 F
36 2 1 1 F
0 1 1 1 F
6 1 1 1 F
9 1 1 1 F
10 1 1 1 F
11 1 1 1 F
14 1 1 1 F
15 1 1 1 F
16 1 1 1 F
18 1 1 1 F
19 1 1 1 F
22 1 1 1 F
23 1 1 1 F
27 1 1 1 F
28 1 1 1 F
30 1 1 1 F
31 1 1 1 F
33 1 1 1 F
36 1 1 1 F
0 0 1 1 F
1 0 1 1 F
2 0 1 1 F
3 0 1 1 F
4 0 1 1 F
5 0 1 1 F
6 0 1 1 F
9 0 1 1 F
10 0 1 1 F
11 0 1 1 F
12 0 1 1 F
14 0 1 1 F
15 0 1 1 F
17 0 1 1 F
18 0 1 1 F
24 0 1 1 F
26 0 1 1 F
28 0 1 1 F
30 0 1 1 F
36 0 1 1 F
%%EOF