%!PS-Adobe EPSF-3.0
%%Creator: VSAN-NEARS-CEB
%%Title: _QRcode
%%CreationDate: 2016-05-20
%%DocumentData: Clean7Bit
%%LanguageLevel: 2
%%Pages: 1
%%BoundingBox: 0 0 444 444
12 12 scale
2 2 translate
/F { rectfill } def
1 1 1 setrgbcolor
-2 -2 37 37 F
0 0 0 setrgbcolor
0 32 1 1 F
1 32 1 1 F
2 32 1 1 F
3 32 1 1 F
4 32 1 1 F
5 32 1 1 F
6 32 1 1 F
8 32 1 1 F
10 32 1 1 F
14 32 1 1 F
15 32 1 1 F
16 32 1 1 F
17 32 1 1 F
18 32 1 1 F
19 32 1 1 F
21 32 1 1 F
23 32 1 1 F
24 32 1 1 F
26 32 1 1 F
27 32 1 1 F
28 32 1 1 F
29 32 1 1 F
30 32 1 1 F
31 32 1 1 F
32 32 1 1 F
0 31 1 1 F
6 31 1 1 F
8 31 1 1 F
9 31 1 1 F
10 31 1 1 F
16 31 1 1 F
17 31 1 1 F
18 31 1 1 F
19 31 1 1 F
20 31 1 1 F
22 31 1 1 F
26 31 1 1 F
32 31 1 1 F
0 30 1 1 F
2 30 1 1 F
3 30 1 1 F
4 30 1 1 F
6 30 1 1 F
8 30 1 1 F
13 30 1 1 F
16 30 1 1 F
19 30 1 1 F
20 30 1 1 F
21 30 1 1 F
22 30 1 1 F
23 30 1 1 F
26 30 1 1 F
28 30 1 1 F
29 30 1 1 F
30 30 1 1 F
32 30 1 1 F
0 29 1 1 F
2 29 1 1 F
3 29 1 1 F
4 29 1 1 F
6 29 1 1 F
9 29 1 1 F
10 29 1 1 F
13 29 1 1 F
16 29 1 1 F
17 29 1 1 F
18 29 1 1 F
19 29 1 1 F
22 29 1 1 F
23 29 1 1 F
26 29 1 1 F
28 29 1 1 F
29 29 1 1 F
30 29 1 1 F
32 29 1 1 F
0 28 1 1 F
2 28 1 1 F
3 28 1 1 F
4 28 1 1 F
6 28 1 1 F
10 28 1 1 F
11 28 1 1 F
12 28 1 1 F
13 28 1 1 F
15 28 1 1 F
17 28 1 1 F
18 28 1 1 F
23 28 1 1 F
26 28 1 1 F
28 28 1 1 F
29 28 1 1 F
30 28 1 1 F
32 28 1 1 F
0 27 1 1 F
6 27 1 1 F
8 27 1 1 F
9 27 1 1 F
11 27 1 1 F
13 27 1 1 F
15 27 1 1 F
18 27 1 1 F
19 27 1 1 F
20 27 1 1 F
22 27 1 1 F
24 27 1 1 F
26 27 1 1 F
32 27 1 1 F
0 26 1 1 F
1 26 1 1 F
2 26 1 1 F
3 26 1 1 F
4 26 1 1 F
5 26 1 1 F
6 26 1 1 F
8 26 1 1 F
10 26 1 1 F
12 26 1 1 F
14 26 1 1 F
16 26 1 1 F
18 26 1 1 F
20 26 1 1 F
22 26 1 1 F
24 26 1 1 F
26 26 1 1 F
27 26 1 1 F
28 26 1 1 F
29 26 1 1 F
30 26 1 1 F
31 26 1 1 F
32 26 1 1 F
8 25 1 1 F
9 25 1 1 F
11 25 1 1 F
12 25 1 1 F
13 25 1 1 F
14 25 1 1 F
15 25 1 1 F
16 25 1 1 F
19 25 1 1 F
20 25 1 1 F
21 25 1 1 F
22 25 1 1 F
24 25 1 1 F
2 24 1 1 F
3 24 1 1 F
4 24 1 1 F
6 24 1 1 F
8 24 1 1 F
10 24 1 1 F
13 24 1 1 F
15 24 1 1 F
17 24 1 1 F
18 24 1 1 F
19 24 1 1 F
20 24 1 1 F
22 24 1 1 F
24 24 1 1 F
25 24 1 1 F
26 24 1 1 F
27 24 1 1 F
30 24 1 1 F
31 24 1 1 F
32 24 1 1 F
0 23 1 1 F
1 23 1 1 F
5 23 1 1 F
7 23 1 1 F
10 23 1 1 F
12 23 1 1 F
13 23 1 1 F
16 23 1 1 F
17 23 1 1 F
18 23 1 1 F
20 23 1 1 F
21 23 1 1 F
23 23 1 1 F
24 23 1 1 F
25 23 1 1 F
26 23 1 1 F
30 23 1 1 F
32 23 1 1 F
0 22 1 1 F
2 22 1 1 F
5 22 1 1 F
6 22 1 1 F
8 22 1 1 F
9 22 1 1 F
10 22 1 1 F
11 22 1 1 F
12 22 1 1 F
13 22 1 1 F
14 22 1 1 F
15 22 1 1 F
16 22 1 1 F
20 22 1 1 F
21 22 1 1 F
26 22 1 1 F
27 22 1 1 F
31 22 1 1 F
0 21 1 1 F
2 21 1 1 F
3 21 1 1 F
5 21 1 1 F
10 21 1 1 F
13 21 1 1 F
16 21 1 1 F
19 21 1 1 F
20 21 1 1 F
21 21 1 1 F
29 21 1 1 F
30 21 1 1 F
31 21 1 1 F
1 20 1 1 F
3 20 1 1 F
6 20 1 1 F
7 20 1 1 F
9 20 1 1 F
13 20 1 1 F
14 20 1 1 F
15 20 1 1 F
17 20 1 1 F
21 20 1 1 F
23 20 1 1 F
24 20 1 1 F
25 20 1 1 F
27 20 1 1 F
28 20 1 1 F
29 20 1 1 F
31 20 1 1 F
0 19 1 1 F
3 19 1 1 F
5 19 1 1 F
9 19 1 1 F
10 19 1 1 F
11 19 1 1 F
12 19 1 1 F
14 19 1 1 F
20 19 1 1 F
23 19 1 1 F
26 19 1 1 F
30 19 1 1 F
32 19 1 1 F
1 18 1 1 F
3 18 1 1 F
4 18 1 1 F
6 18 1 1 F
7 18 1 1 F
8 18 1 1 F
9 18 1 1 F
11 18 1 1 F
12 18 1 1 F
14 18 1 1 F
16 18 1 1 F
17 18 1 1 F
20 18 1 1 F
22 18 1 1 F
24 18 1 1 F
27 18 1 1 F
31 18 1 1 F
5 17 1 1 F
7 17 1 1 F
10 17 1 1 F
13 17 1 1 F
17 17 1 1 F
18 17 1 1 F
19 17 1 1 F
21 17 1 1 F
22 17 1 1 F
23 17 1 1 F
25 17 1 1 F
26 17 1 1 F
28 17 1 1 F
29 17 1 1 F
30 17 1 1 F
31 17 1 1 F
0 16 1 1 F
1 16 1 1 F
5 16 1 1 F
6 16 1 1 F
7 16 1 1 F
11 16 1 1 F
12 16 1 1 F
16 16 1 1 F
17 16 1 1 F
19 16 1 1 F
20 16 1 1 F
22 16 1 1 F
23 16 1 1 F
24 16 1 1 F
25 16 1 1 F
27 16 1 1 F
28 16 1 1 F
0 15 1 1 F
1 15 1 1 F
2 15 1 1 F
5 15 1 1 F
9 15 1 1 F
10 15 1 1 F
14 15 1 1 F
18 15 1 1 F
20 15 1 1 F
21 15 1 1 F
22 15 1 1 F
23 15 1 1 F
24 15 1 1 F
26 15 1 1 F
32 15 1 1 F
1 14 1 1 F
6 14 1 1 F
7 14 1 1 F
10 14 1 1 F
12 14 1 1 F
14 14 1 1 F
18 14 1 1 F
24 14 1 1 F
25 14 1 1 F
27 14 1 1 F
28 14 1 1 F
30 14 1 1 F
31 14 1 1 F
1 13 1 1 F
3 13 1 1 F
5 13 1 1 F
8 13 1 1 F
11 13 1 1 F
12 13 1 1 F
13 13 1 1 F
15 13 1 1 F
16 13 1 1 F
18 13 1 1 F
19 13 1 1 F
20 13 1 1 F
21 13 1 1 F
22 13 1 1 F
23 13 1 1 F
24 13 1 1 F
25 13 1 1 F
28 13 1 1 F
29 13 1 1 F
30 13 1 1 F
31 13 1 1 F
32 13 1 1 F
2 12 1 1 F
3 12 1 1 F
4 12 1 1 F
6 12 1 1 F
7 12 1 1 F
10 12 1 1 F
14 12 1 1 F
17 12 1 1 F
22 12 1 1 F
23 12 1 1 F
25 12 1 1 F
27 12 1 1 F
28 12 1 1 F
29 12 1 1 F
31 12 1 1 F
32 12 1 1 F
0 11 1 1 F
3 11 1 1 F
9 11 1 1 F
12 11 1 1 F
13 11 1 1 F
14 11 1 1 F
16 11 1 1 F
17 11 1 1 F
18 11 1 1 F
20 11 1 1 F
23 11 1 1 F
26 11 1 1 F
29 11 1 1 F
31 11 1 1 F
32 11 1 1 F
0 10 1 1 F
2 10 1 1 F
3 10 1 1 F
4 10 1 1 F
6 10 1 1 F
7 10 1 1 F
9 10 1 1 F
10 10 1 1 F
11 10 1 1 F
16 10 1 1 F
17 10 1 1 F
19 10 1 1 F
20 10 1 1 F
21 10 1 1 F
22 10 1 1 F
27 10 1 1 F
28 10 1 1 F
31 10 1 1 F
0 9 1 1 F
5 9 1 1 F
9 9 1 1 F
10 9 1 1 F
11 9 1 1 F
14 9 1 1 F
20 9 1 1 F
21 9 1 1 F
22 9 1 1 F
24 9 1 1 F
27 9 1 1 F
28 9 1 1 F
29 9 1 1 F
30 9 1 1 F
31 9 1 1 F
32 9 1 1 F
0 8 1 1 F
2 8 1 1 F
6 8 1 1 F
9 8 1 1 F
13 8 1 1 F
14 8 1 1 F
19 8 1 1 F
20 8 1 1 F
22 8 1 1 F
24 8 1 1 F
25 8 1 1 F
26 8 1 1 F
27 8 1 1 F
28 8 1 1 F
29 8 1 1 F
31 8 1 1 F
32 8 1 1 F
8 7 1 1 F
14 7 1 1 F
24 7 1 1 F
28 7 1 1 F
30 7 1 1 F
32 7 1 1 F
0 6 1 1 F
1 6 1 1 F
2 6 1 1 F
3 6 1 1 F
4 6 1 1 F
5 6 1 1 F
6 6 1 1 F
9 6 1 1 F
12 6 1 1 F
13 6 1 1 F
14 6 1 1 F
15 6 1 1 F
17 6 1 1 F
18 6 1 1 F
20 6 1 1 F
22 6 1 1 F
23 6 1 1 F
24 6 1 1 F
26 6 1 1 F
28 6 1 1 F
30 6 1 1 F
31 6 1 1 F
0 5 1 1 F
6 5 1 1 F
9 5 1 1 F
12 5 1 1 F
14 5 1 1 F
15 5 1 1 F
20 5 1 1 F
23 5 1 1 F
24 5 1 1 F
28 5 1 1 F
30 5 1 1 F
31 5 1 1 F
32 5 1 1 F
0 4 1 1 F
2 4 1 1 F
3 4 1 1 F
4 4 1 1 F
6 4 1 1 F
8 4 1 1 F
9 4 1 1 F
11 4 1 1 F
13 4 1 1 F
18 4 1 1 F
19 4 1 1 F
21 4 1 1 F
22 4 1 1 F
24 4 1 1 F
25 4 1 1 F
26 4 1 1 F
27 4 1 1 F
28 4 1 1 F
31 4 1 1 F
0 3 1 1 F
2 3 1 1 F
3 3 1 1 F
4 3 1 1 F
6 3 1 1 F
8 3 1 1 F
11 3 1 1 F
12 3 1 1 F
13 3 1 1 F
16 3 1 1 F
18 3 1 1 F
21 3 1 1 F
23 3 1 1 F
28 3 1 1 F
32 3 1 1 F
0 2 1 1 F
2 2 1 1 F
3 2 1 1 F
4 2 1 1 F
6 2 1 1 F
8 2 1 1 F
10 2 1 1 F
11 2 1 1 F
14 2 1 1 F
17 2 1 1 F
18 2 1 1 F
21 2 1 1 F
23 2 1 1 F
25 2 1 1 F
26 2 1 1 F
29 2 1 1 F
30 2 1 1 F
0 1 1 1 F
6 1 1 1 F
10 1 1 1 F
13 1 1 1 F
15 1 1 1 F
17 1 1 1 F
21 1 1 1 F
27 1 1 1 F
29 1 1 1 F
30 1 1 1 F
0 0 1 1 F
1 0 1 1 F
2 0 1 1 F
3 0 1 1 F
4 0 1 1 F
5 0 1 1 F
6 0 1 1 F
9 0 1 1 F
10 0 1 1 F
14 0 1 1 F
16 0 1 1 F
18 0 1 1 F
19 0 1 1 F
21 0 1 1 F
22 0 1 1 F
23 0 1 1 F
24 0 1 1 F
25 0 1 1 F
31 0 1 1 F
%%EOF