%!PS-Adobe EPSF-3.0
%%Creator: VSAN-NEARS-CEB
%%Title: _QRcode
%%CreationDate: 2016-05-25
%%DocumentData: Clean7Bit
%%LanguageLevel: 2
%%Pages: 1
%%BoundingBox: 0 0 636 636
12 12 scale
2 2 translate
/F { rectfill } def
1 1 1 setrgbcolor
-2 -2 53 53 F
0 0 0 setrgbcolor
0 48 1 1 F
1 48 1 1 F
2 48 1 1 F
3 48 1 1 F
4 48 1 1 F
5 48 1 1 F
6 48 1 1 F
8 48 1 1 F
9 48 1 1 F
12 48 1 1 F
13 48 1 1 F
14 48 1 1 F
15 48 1 1 F
16 48 1 1 F
21 48 1 1 F
24 48 1 1 F
26 48 1 1 F
28 48 1 1 F
31 48 1 1 F
32 48 1 1 F
35 48 1 1 F
36 48 1 1 F
40 48 1 1 F
42 48 1 1 F
43 48 1 1 F
44 48 1 1 F
45 48 1 1 F
46 48 1 1 F
47 48 1 1 F
48 48 1 1 F
0 47 1 1 F
6 47 1 1 F
8 47 1 1 F
10 47 1 1 F
12 47 1 1 F
13 47 1 1 F
15 47 1 1 F
18 47 1 1 F
22 47 1 1 F
24 47 1 1 F
25 47 1 1 F
27 47 1 1 F
28 47 1 1 F
29 47 1 1 F
30 47 1 1 F
31 47 1 1 F
33 47 1 1 F
34 47 1 1 F
38 47 1 1 F
39 47 1 1 F
40 47 1 1 F
42 47 1 1 F
48 47 1 1 F
0 46 1 1 F
2 46 1 1 F
3 46 1 1 F
4 46 1 1 F
6 46 1 1 F
8 46 1 1 F
9 46 1 1 F
11 46 1 1 F
14 46 1 1 F
17 46 1 1 F
18 46 1 1 F
22 46 1 1 F
23 46 1 1 F
28 46 1 1 F
29 46 1 1 F
32 46 1 1 F
33 46 1 1 F
35 46 1 1 F
39 46 1 1 F
40 46 1 1 F
42 46 1 1 F
44 46 1 1 F
45 46 1 1 F
46 46 1 1 F
48 46 1 1 F
0 45 1 1 F
2 45 1 1 F
3 45 1 1 F
4 45 1 1 F
6 45 1 1 F
9 45 1 1 F
10 45 1 1 F
13 45 1 1 F
15 45 1 1 F
17 45 1 1 F
18 45 1 1 F
20 45 1 1 F
22 45 1 1 F
25 45 1 1 F
26 45 1 1 F
27 45 1 1 F
28 45 1 1 F
29 45 1 1 F
32 45 1 1 F
35 45 1 1 F
36 45 1 1 F
37 45 1 1 F
39 45 1 1 F
42 45 1 1 F
44 45 1 1 F
45 45 1 1 F
46 45 1 1 F
48 45 1 1 F
0 44 1 1 F
2 44 1 1 F
3 44 1 1 F
4 44 1 1 F
6 44 1 1 F
9 44 1 1 F
10 44 1 1 F
11 44 1 1 F
12 44 1 1 F
16 44 1 1 F
18 44 1 1 F
22 44 1 1 F
23 44 1 1 F
24 44 1 1 F
25 44 1 1 F
26 44 1 1 F
29 44 1 1 F
30 44 1 1 F
31 44 1 1 F
35 44 1 1 F
36 44 1 1 F
37 44 1 1 F
42 44 1 1 F
44 44 1 1 F
45 44 1 1 F
46 44 1 1 F
48 44 1 1 F
0 43 1 1 F
6 43 1 1 F
8 43 1 1 F
9 43 1 1 F
10 43 1 1 F
12 43 1 1 F
20 43 1 1 F
22 43 1 1 F
26 43 1 1 F
28 43 1 1 F
31 43 1 1 F
32 43 1 1 F
33 43 1 1 F
34 43 1 1 F
36 43 1 1 F
38 43 1 1 F
42 43 1 1 F
48 43 1 1 F
0 42 1 1 F
1 42 1 1 F
2 42 1 1 F
3 42 1 1 F
4 42 1 1 F
5 42 1 1 F
6 42 1 1 F
8 42 1 1 F
10 42 1 1 F
12 42 1 1 F
14 42 1 1 F
16 42 1 1 F
18 42 1 1 F
20 42 1 1 F
22 42 1 1 F
24 42 1 1 F
26 42 1 1 F
28 42 1 1 F
30 42 1 1 F
32 42 1 1 F
34 42 1 1 F
36 42 1 1 F
38 42 1 1 F
40 42 1 1 F
42 42 1 1 F
43 42 1 1 F
44 42 1 1 F
45 42 1 1 F
46 42 1 1 F
47 42 1 1 F
48 42 1 1 F
8 41 1 1 F
9 41 1 1 F
10 41 1 1 F
11 41 1 1 F
12 41 1 1 F
13 41 1 1 F
16 41 1 1 F
17 41 1 1 F
18 41 1 1 F
19 41 1 1 F
20 41 1 1 F
21 41 1 1 F
22 41 1 1 F
26 41 1 1 F
29 41 1 1 F
30 41 1 1 F
34 41 1 1 F
35 41 1 1 F
36 41 1 1 F
37 41 1 1 F
38 41 1 1 F
39 41 1 1 F
2 40 1 1 F
3 40 1 1 F
4 40 1 1 F
6 40 1 1 F
8 40 1 1 F
9 40 1 1 F
10 40 1 1 F
19 40 1 1 F
21 40 1 1 F
22 40 1 1 F
23 40 1 1 F
24 40 1 1 F
25 40 1 1 F
26 40 1 1 F
27 40 1 1 F
29 40 1 1 F
32 40 1 1 F
33 40 1 1 F
34 40 1 1 F
36 40 1 1 F
38 40 1 1 F
39 40 1 1 F
40 40 1 1 F
41 40 1 1 F
42 40 1 1 F
43 40 1 1 F
46 40 1 1 F
47 40 1 1 F
48 40 1 1 F
0 39 1 1 F
2 39 1 1 F
3 39 1 1 F
5 39 1 1 F
9 39 1 1 F
11 39 1 1 F
12 39 1 1 F
15 39 1 1 F
16 39 1 1 F
18 39 1 1 F
19 39 1 1 F
23 39 1 1 F
29 39 1 1 F
30 39 1 1 F
35 39 1 1 F
36 39 1 1 F
37 39 1 1 F
41 39 1 1 F
42 39 1 1 F
44 39 1 1 F
45 39 1 1 F
1 38 1 1 F
3 38 1 1 F
5 38 1 1 F
6 38 1 1 F
9 38 1 1 F
10 38 1 1 F
12 38 1 1 F
13 38 1 1 F
17 38 1 1 F
19 38 1 1 F
20 38 1 1 F
24 38 1 1 F
25 38 1 1 F
27 38 1 1 F
30 38 1 1 F
33 38 1 1 F
34 38 1 1 F
36 38 1 1 F
37 38 1 1 F
38 38 1 1 F
40 38 1 1 F
41 38 1 1 F
43 38 1 1 F
44 38 1 1 F
45 38 1 1 F
46 38 1 1 F
47 38 1 1 F
48 38 1 1 F
1 37 1 1 F
5 37 1 1 F
7 37 1 1 F
8 37 1 1 F
10 37 1 1 F
13 37 1 1 F
15 37 1 1 F
17 37 1 1 F
18 37 1 1 F
19 37 1 1 F
20 37 1 1 F
23 37 1 1 F
24 37 1 1 F
25 37 1 1 F
27 37 1 1 F
28 37 1 1 F
29 37 1 1 F
32 37 1 1 F
38 37 1 1 F
40 37 1 1 F
41 37 1 1 F
42 37 1 1 F
43 37 1 1 F
44 37 1 1 F
47 37 1 1 F
0 36 1 1 F
2 36 1 1 F
5 36 1 1 F
6 36 1 1 F
7 36 1 1 F
9 36 1 1 F
13 36 1 1 F
14 36 1 1 F
16 36 1 1 F
18 36 1 1 F
20 36 1 1 F
21 36 1 1 F
26 36 1 1 F
29 36 1 1 F
31 36 1 1 F
32 36 1 1 F
34 36 1 1 F
35 36 1 1 F
36 36 1 1 F
38 36 1 1 F
39 36 1 1 F
40 36 1 1 F
41 36 1 1 F
43 36 1 1 F
46 36 1 1 F
48 36 1 1 F
1 35 1 1 F
2 35 1 1 F
3 35 1 1 F
4 35 1 1 F
5 35 1 1 F
8 35 1 1 F
9 35 1 1 F
10 35 1 1 F
11 35 1 1 F
12 35 1 1 F
15 35 1 1 F
16 35 1 1 F
17 35 1 1 F
19 35 1 1 F
20 35 1 1 F
21 35 1 1 F
22 35 1 1 F
25 35 1 1 F
26 35 1 1 F
28 35 1 1 F
31 35 1 1 F
32 35 1 1 F
33 35 1 1 F
37 35 1 1 F
39 35 1 1 F
41 35 1 1 F
42 35 1 1 F
43 35 1 1 F
44 35 1 1 F
46 35 1 1 F
1 34 1 1 F
3 34 1 1 F
6 34 1 1 F
8 34 1 1 F
13 34 1 1 F
15 34 1 1 F
17 34 1 1 F
18 34 1 1 F
19 34 1 1 F
20 34 1 1 F
21 34 1 1 F
24 34 1 1 F
25 34 1 1 F
30 34 1 1 F
33 34 1 1 F
35 34 1 1 F
38 34 1 1 F
40 34 1 1 F
45 34 1 1 F
46 34 1 1 F
48 34 1 1 F
1 33 1 1 F
3 33 1 1 F
4 33 1 1 F
5 33 1 1 F
9 33 1 1 F
11 33 1 1 F
13 33 1 1 F
14 33 1 1 F
15 33 1 1 F
16 33 1 1 F
17 33 1 1 F
19 33 1 1 F
20 33 1 1 F
24 33 1 1 F
26 33 1 1 F
27 33 1 1 F
28 33 1 1 F
34 33 1 1 F
37 33 1 1 F
38 33 1 1 F
40 33 1 1 F
42 33 1 1 F
44 33 1 1 F
46 33 1 1 F
47 33 1 1 F
48 33 1 1 F
0 32 1 1 F
2 32 1 1 F
4 32 1 1 F
6 32 1 1 F
7 32 1 1 F
8 32 1 1 F
10 32 1 1 F
11 32 1 1 F
12 32 1 1 F
13 32 1 1 F
16 32 1 1 F
18 32 1 1 F
20 32 1 1 F
21 32 1 1 F
22 32 1 1 F
23 32 1 1 F
25 32 1 1 F
26 32 1 1 F
30 32 1 1 F
31 32 1 1 F
33 32 1 1 F
34 32 1 1 F
35 32 1 1 F
36 32 1 1 F
38 32 1 1 F
41 32 1 1 F
42 32 1 1 F
43 32 1 1 F
45 32 1 1 F
47 32 1 1 F
48 32 1 1 F
2 31 1 1 F
3 31 1 1 F
5 31 1 1 F
7 31 1 1 F
11 31 1 1 F
13 31 1 1 F
16 31 1 1 F
21 31 1 1 F
22 31 1 1 F
24 31 1 1 F
25 31 1 1 F
26 31 1 1 F
31 31 1 1 F
32 31 1 1 F
34 31 1 1 F
35 31 1 1 F
36 31 1 1 F
37 31 1 1 F
38 31 1 1 F
39 31 1 1 F
42 31 1 1 F
43 31 1 1 F
44 31 1 1 F
45 31 1 1 F
46 31 1 1 F
47 31 1 1 F
0 30 1 1 F
1 30 1 1 F
2 30 1 1 F
5 30 1 1 F
6 30 1 1 F
8 30 1 1 F
9 30 1 1 F
12 30 1 1 F
15 30 1 1 F
19 30 1 1 F
28 30 1 1 F
31 30 1 1 F
32 30 1 1 F
33 30 1 1 F
36 30 1 1 F
41 30 1 1 F
42 30 1 1 F
45 30 1 1 F
47 30 1 1 F
48 30 1 1 F
1 29 1 1 F
3 29 1 1 F
4 29 1 1 F
7 29 1 1 F
9 29 1 1 F
11 29 1 1 F
15 29 1 1 F
17 29 1 1 F
18 29 1 1 F
19 29 1 1 F
20 29 1 1 F
21 29 1 1 F
22 29 1 1 F
26 29 1 1 F
29 29 1 1 F
30 29 1 1 F
31 29 1 1 F
33 29 1 1 F
37 29 1 1 F
38 29 1 1 F
39 29 1 1 F
42 29 1 1 F
43 29 1 1 F
44 29 1 1 F
47 29 1 1 F
48 29 1 1 F
0 28 1 1 F
3 28 1 1 F
4 28 1 1 F
6 28 1 1 F
7 28 1 1 F
10 28 1 1 F
12 28 1 1 F
17 28 1 1 F
18 28 1 1 F
22 28 1 1 F
23 28 1 1 F
26 28 1 1 F
28 28 1 1 F
29 28 1 1 F
33 28 1 1 F
35 28 1 1 F
36 28 1 1 F
37 28 1 1 F
38 28 1 1 F
40 28 1 1 F
42 28 1 1 F
43 28 1 1 F
46 28 1 1 F
48 28 1 1 F
0 27 1 1 F
1 27 1 1 F
5 27 1 1 F
7 27 1 1 F
8 27 1 1 F
10 27 1 1 F
14 27 1 1 F
16 27 1 1 F
17 27 1 1 F
19 27 1 1 F
20 27 1 1 F
22 27 1 1 F
26 27 1 1 F
28 27 1 1 F
29 27 1 1 F
37 27 1 1 F
42 27 1 1 F
45 27 1 1 F
0 26 1 1 F
1 26 1 1 F
2 26 1 1 F
4 26 1 1 F
5 26 1 1 F
6 26 1 1 F
7 26 1 1 F
8 26 1 1 F
12 26 1 1 F
13 26 1 1 F
17 26 1 1 F
18 26 1 1 F
19 26 1 1 F
22 26 1 1 F
23 26 1 1 F
24 26 1 1 F
25 26 1 1 F
26 26 1 1 F
27 26 1 1 F
28 26 1 1 F
30 26 1 1 F
34 26 1 1 F
35 26 1 1 F
38 26 1 1 F
39 26 1 1 F
40 26 1 1 F
41 26 1 1 F
42 26 1 1 F
43 26 1 1 F
44 26 1 1 F
47 26 1 1 F
48 26 1 1 F
4 25 1 1 F
8 25 1 1 F
10 25 1 1 F
12 25 1 1 F
13 25 1 1 F
18 25 1 1 F
19 25 1 1 F
20 25 1 1 F
21 25 1 1 F
22 25 1 1 F
26 25 1 1 F
31 25 1 1 F
34 25 1 1 F
37 25 1 1 F
38 25 1 1 F
40 25 1 1 F
44 25 1 1 F
45 25 1 1 F
1 24 1 1 F
2 24 1 1 F
3 24 1 1 F
4 24 1 1 F
6 24 1 1 F
8 24 1 1 F
10 24 1 1 F
11 24 1 1 F
13 24 1 1 F
14 24 1 1 F
16 24 1 1 F
22 24 1 1 F
24 24 1 1 F
26 24 1 1 F
29 24 1 1 F
35 24 1 1 F
36 24 1 1 F
37 24 1 1 F
38 24 1 1 F
40 24 1 1 F
42 24 1 1 F
44 24 1 1 F
45 24 1 1 F
46 24 1 1 F
48 24 1 1 F
2 23 1 1 F
3 23 1 1 F
4 23 1 1 F
8 23 1 1 F
11 23 1 1 F
14 23 1 1 F
16 23 1 1 F
17 23 1 1 F
18 23 1 1 F
19 23 1 1 F
21 23 1 1 F
22 23 1 1 F
26 23 1 1 F
30 23 1 1 F
31 23 1 1 F
35 23 1 1 F
40 23 1 1 F
44 23 1 1 F
46 23 1 1 F
47 23 1 1 F
48 23 1 1 F
0 22 1 1 F
4 22 1 1 F
5 22 1 1 F
6 22 1 1 F
7 22 1 1 F
8 22 1 1 F
10 22 1 1 F
13 22 1 1 F
16 22 1 1 F
18 22 1 1 F
22 22 1 1 F
23 22 1 1 F
24 22 1 1 F
25 22 1 1 F
26 22 1 1 F
28 22 1 1 F
30 22 1 1 F
34 22 1 1 F
36 22 1 1 F
38 22 1 1 F
39 22 1 1 F
40 22 1 1 F
41 22 1 1 F
42 22 1 1 F
43 22 1 1 F
44 22 1 1 F
45 22 1 1 F
46 22 1 1 F
48 22 1 1 F
0 21 1 1 F
1 21 1 1 F
2 21 1 1 F
4 21 1 1 F
5 21 1 1 F
7 21 1 1 F
8 21 1 1 F
9 21 1 1 F
10 21 1 1 F
11 21 1 1 F
12 21 1 1 F
13 21 1 1 F
14 21 1 1 F
15 21 1 1 F
16 21 1 1 F
20 21 1 1 F
21 21 1 1 F
22 21 1 1 F
26 21 1 1 F
27 21 1 1 F
28 21 1 1 F
34 21 1 1 F
38 21 1 1 F
40 21 1 1 F
41 21 1 1 F
43 21 1 1 F
47 21 1 1 F
48 21 1 1 F
0 20 1 1 F
3 20 1 1 F
4 20 1 1 F
6 20 1 1 F
7 20 1 1 F
8 20 1 1 F
10 20 1 1 F
11 20 1 1 F
12 20 1 1 F
13 20 1 1 F
17 20 1 1 F
19 20 1 1 F
21 20 1 1 F
23 20 1 1 F
25 20 1 1 F
26 20 1 1 F
27 20 1 1 F
28 20 1 1 F
29 20 1 1 F
31 20 1 1 F
32 20 1 1 F
35 20 1 1 F
36 20 1 1 F
37 20 1 1 F
38 20 1 1 F
39 20 1 1 F
40 20 1 1 F
41 20 1 1 F
45 20 1 1 F
46 20 1 1 F
48 20 1 1 F
2 19 1 1 F
3 19 1 1 F
4 19 1 1 F
5 19 1 1 F
8 19 1 1 F
9 19 1 1 F
10 19 1 1 F
14 19 1 1 F
15 19 1 1 F
17 19 1 1 F
21 19 1 1 F
23 19 1 1 F
24 19 1 1 F
29 19 1 1 F
30 19 1 1 F
32 19 1 1 F
37 19 1 1 F
39 19 1 1 F
40 19 1 1 F
41 19 1 1 F
43 19 1 1 F
44 19 1 1 F
46 19 1 1 F
47 19 1 1 F
0 18 1 1 F
1 18 1 1 F
2 18 1 1 F
6 18 1 1 F
7 18 1 1 F
11 18 1 1 F
14 18 1 1 F
15 18 1 1 F
17 18 1 1 F
18 18 1 1 F
22 18 1 1 F
23 18 1 1 F
27 18 1 1 F
29 18 1 1 F
30 18 1 1 F
31 18 1 1 F
32 18 1 1 F
33 18 1 1 F
34 18 1 1 F
35 18 1 1 F
38 18 1 1 F
39 18 1 1 F
40 18 1 1 F
41 18 1 1 F
42 18 1 1 F
44 18 1 1 F
46 18 1 1 F
47 18 1 1 F
48 18 1 1 F
1 17 1 1 F
3 17 1 1 F
5 17 1 1 F
8 17 1 1 F
10 17 1 1 F
13 17 1 1 F
15 17 1 1 F
17 17 1 1 F
18 17 1 1 F
20 17 1 1 F
21 17 1 1 F
22 17 1 1 F
23 17 1 1 F
25 17 1 1 F
28 17 1 1 F
36 17 1 1 F
38 17 1 1 F
40 17 1 1 F
43 17 1 1 F
44 17 1 1 F
47 17 1 1 F
3 16 1 1 F
4 16 1 1 F
6 16 1 1 F
9 16 1 1 F
11 16 1 1 F
16 16 1 1 F
20 16 1 1 F
21 16 1 1 F
22 16 1 1 F
24 16 1 1 F
27 16 1 1 F
30 16 1 1 F
31 16 1 1 F
32 16 1 1 F
34 16 1 1 F
35 16 1 1 F
38 16 1 1 F
39 16 1 1 F
40 16 1 1 F
42 16 1 1 F
43 16 1 1 F
44 16 1 1 F
45 16 1 1 F
46 16 1 1 F
47 16 1 1 F
0 15 1 1 F
1 15 1 1 F
2 15 1 1 F
5 15 1 1 F
7 15 1 1 F
9 15 1 1 F
11 15 1 1 F
17 15 1 1 F
19 15 1 1 F
21 15 1 1 F
26 15 1 1 F
27 15 1 1 F
30 15 1 1 F
32 15 1 1 F
37 15 1 1 F
40 15 1 1 F
42 15 1 1 F
43 15 1 1 F
45 15 1 1 F
2 14 1 1 F
5 14 1 1 F
6 14 1 1 F
7 14 1 1 F
11 14 1 1 F
14 14 1 1 F
17 14 1 1 F
20 14 1 1 F
23 14 1 1 F
24 14 1 1 F
26 14 1 1 F
27 14 1 1 F
29 14 1 1 F
30 14 1 1 F
31 14 1 1 F
32 14 1 1 F
33 14 1 1 F
34 14 1 1 F
35 14 1 1 F
38 14 1 1 F
42 14 1 1 F
44 14 1 1 F
45 14 1 1 F
47 14 1 1 F
48 14 1 1 F
0 13 1 1 F
1 13 1 1 F
2 13 1 1 F
5 13 1 1 F
7 13 1 1 F
8 13 1 1 F
9 13 1 1 F
13 13 1 1 F
14 13 1 1 F
16 13 1 1 F
17 13 1 1 F
18 13 1 1 F
19 13 1 1 F
20 13 1 1 F
21 13 1 1 F
25 13 1 1 F
27 13 1 1 F
30 13 1 1 F
31 13 1 1 F
34 13 1 1 F
38 13 1 1 F
41 13 1 1 F
43 13 1 1 F
44 13 1 1 F
45 13 1 1 F
47 13 1 1 F
48 13 1 1 F
1 12 1 1 F
2 12 1 1 F
3 12 1 1 F
4 12 1 1 F
6 12 1 1 F
8 12 1 1 F
10 12 1 1 F
11 12 1 1 F
14 12 1 1 F
17 12 1 1 F
18 12 1 1 F
21 12 1 1 F
22 12 1 1 F
25 12 1 1 F
26 12 1 1 F
28 12 1 1 F
33 12 1 1 F
34 12 1 1 F
35 12 1 1 F
36 12 1 1 F
39 12 1 1 F
40 12 1 1 F
41 12 1 1 F
42 12 1 1 F
44 12 1 1 F
45 12 1 1 F
46 12 1 1 F
47 12 1 1 F
0 11 1 1 F
1 11 1 1 F
2 11 1 1 F
4 11 1 1 F
5 11 1 1 F
9 11 1 1 F
14 11 1 1 F
15 11 1 1 F
16 11 1 1 F
17 11 1 1 F
18 11 1 1 F
21 11 1 1 F
25 11 1 1 F
27 11 1 1 F
28 11 1 1 F
29 11 1 1 F
31 11 1 1 F
34 11 1 1 F
35 11 1 1 F
36 11 1 1 F
37 11 1 1 F
39 11 1 1 F
40 11 1 1 F
41 11 1 1 F
45 11 1 1 F
1 10 1 1 F
5 10 1 1 F
6 10 1 1 F
8 10 1 1 F
9 10 1 1 F
10 10 1 1 F
11 10 1 1 F
12 10 1 1 F
14 10 1 1 F
15 10 1 1 F
16 10 1 1 F
17 10 1 1 F
18 10 1 1 F
20 10 1 1 F
21 10 1 1 F
22 10 1 1 F
23 10 1 1 F
27 10 1 1 F
28 10 1 1 F
29 10 1 1 F
33 10 1 1 F
36 10 1 1 F
38 10 1 1 F
41 10 1 1 F
42 10 1 1 F
43 10 1 1 F
47 10 1 1 F
48 10 1 1 F
1 9 1 1 F
2 9 1 1 F
3 9 1 1 F
8 9 1 1 F
9 9 1 1 F
10 9 1 1 F
11 9 1 1 F
12 9 1 1 F
15 9 1 1 F
16 9 1 1 F
19 9 1 1 F
20 9 1 1 F
21 9 1 1 F
22 9 1 1 F
23 9 1 1 F
26 9 1 1 F
28 9 1 1 F
29 9 1 1 F
30 9 1 1 F
32 9 1 1 F
33 9 1 1 F
43 9 1 1 F
44 9 1 1 F
45 9 1 1 F
48 9 1 1 F
0 8 1 1 F
1 8 1 1 F
2 8 1 1 F
6 8 1 1 F
7 8 1 1 F
10 8 1 1 F
11 8 1 1 F
12 8 1 1 F
13 8 1 1 F
15 8 1 1 F
17 8 1 1 F
20 8 1 1 F
21 8 1 1 F
22 8 1 1 F
23 8 1 1 F
24 8 1 1 F
25 8 1 1 F
26 8 1 1 F
27 8 1 1 F
28 8 1 1 F
29 8 1 1 F
31 8 1 1 F
35 8 1 1 F
36 8 1 1 F
37 8 1 1 F
39 8 1 1 F
40 8 1 1 F
41 8 1 1 F
42 8 1 1 F
43 8 1 1 F
44 8 1 1 F
47 8 1 1 F
8 7 1 1 F
9 7 1 1 F
10 7 1 1 F
12 7 1 1 F
15 7 1 1 F
16 7 1 1 F
21 7 1 1 F
22 7 1 1 F
26 7 1 1 F
27 7 1 1 F
30 7 1 1 F
31 7 1 1 F
32 7 1 1 F
33 7 1 1 F
36 7 1 1 F
39 7 1 1 F
40 7 1 1 F
44 7 1 1 F
47 7 1 1 F
0 6 1 1 F
1 6 1 1 F
2 6 1 1 F
3 6 1 1 F
4 6 1 1 F
5 6 1 1 F
6 6 1 1 F
11 6 1 1 F
12 6 1 1 F
13 6 1 1 F
14 6 1 1 F
17 6 1 1 F
18 6 1 1 F
20 6 1 1 F
21 6 1 1 F
22 6 1 1 F
24 6 1 1 F
26 6 1 1 F
27 6 1 1 F
29 6 1 1 F
30 6 1 1 F
37 6 1 1 F
40 6 1 1 F
42 6 1 1 F
44 6 1 1 F
45 6 1 1 F
47 6 1 1 F
48 6 1 1 F
0 5 1 1 F
6 5 1 1 F
11 5 1 1 F
12 5 1 1 F
13 5 1 1 F
14 5 1 1 F
16 5 1 1 F
18 5 1 1 F
21 5 1 1 F
22 5 1 1 F
26 5 1 1 F
29 5 1 1 F
31 5 1 1 F
32 5 1 1 F
33 5 1 1 F
39 5 1 1 F
40 5 1 1 F
44 5 1 1 F
0 4 1 1 F
2 4 1 1 F
3 4 1 1 F
4 4 1 1 F
6 4 1 1 F
8 4 1 1 F
10 4 1 1 F
12 4 1 1 F
13 4 1 1 F
14 4 1 1 F
16 4 1 1 F
17 4 1 1 F
18 4 1 1 F
19 4 1 1 F
22 4 1 1 F
23 4 1 1 F
24 4 1 1 F
25 4 1 1 F
26 4 1 1 F
33 4 1 1 F
35 4 1 1 F
36 4 1 1 F
37 4 1 1 F
40 4 1 1 F
41 4 1 1 F
42 4 1 1 F
43 4 1 1 F
44 4 1 1 F
46 4 1 1 F
47 4 1 1 F
0 3 1 1 F
2 3 1 1 F
3 3 1 1 F
4 3 1 1 F
6 3 1 1 F
8 3 1 1 F
11 3 1 1 F
12 3 1 1 F
13 3 1 1 F
15 3 1 1 F
16 3 1 1 F
17 3 1 1 F
19 3 1 1 F
20 3 1 1 F
22 3 1 1 F
24 3 1 1 F
25 3 1 1 F
26 3 1 1 F
29 3 1 1 F
31 3 1 1 F
33 3 1 1 F
35 3 1 1 F
39 3 1 1 F
41 3 1 1 F
42 3 1 1 F
43 3 1 1 F
44 3 1 1 F
46 3 1 1 F
48 3 1 1 F
0 2 1 1 F
2 2 1 1 F
3 2 1 1 F
4 2 1 1 F
6 2 1 1 F
8 2 1 1 F
10 2 1 1 F
11 2 1 1 F
12 2 1 1 F
13 2 1 1 F
14 2 1 1 F
15 2 1 1 F
16 2 1 1 F
19 2 1 1 F
21 2 1 1 F
22 2 1 1 F
23 2 1 1 F
25 2 1 1 F
26 2 1 1 F
29 2 1 1 F
31 2 1 1 F
33 2 1 1 F
34 2 1 1 F
35 2 1 1 F
36 2 1 1 F
38 2 1 1 F
40 2 1 1 F
41 2 1 1 F
42 2 1 1 F
43 2 1 1 F
45 2 1 1 F
46 2 1 1 F
47 2 1 1 F
48 2 1 1 F
0 1 1 1 F
6 1 1 1 F
9 1 1 1 F
11 1 1 1 F
14 1 1 1 F
17 1 1 1 F
19 1 1 1 F
20 1 1 1 F
22 1 1 1 F
27 1 1 1 F
28 1 1 1 F
29 1 1 1 F
30 1 1 1 F
32 1 1 1 F
33 1 1 1 F
35 1 1 1 F
37 1 1 1 F
38 1 1 1 F
39 1 1 1 F
40 1 1 1 F
41 1 1 1 F
42 1 1 1 F
44 1 1 1 F
48 1 1 1 F
0 0 1 1 F
1 0 1 1 F
2 0 1 1 F
3 0 1 1 F
4 0 1 1 F
5 0 1 1 F
6 0 1 1 F
9 0 1 1 F
13 0 1 1 F
15 0 1 1 F
16 0 1 1 F
17 0 1 1 F
19 0 1 1 F
22 0 1 1 F
23 0 1 1 F
24 0 1 1 F
28 0 1 1 F
29 0 1 1 F
30 0 1 1 F
31 0 1 1 F
33 0 1 1 F
35 0 1 1 F
36 0 1 1 F
37 0 1 1 F
38 0 1 1 F
40 0 1 1 F
44 0 1 1 F
45 0 1 1 F
46 0 1 1 F
47 0 1 1 F
48 0 1 1 F
%%EOF