%!PS-Adobe EPSF-3.0
%%Creator: VSAN-NEARS-CEB
%%Title: _QRcode
%%CreationDate: 2016-05-20
%%DocumentData: Clean7Bit
%%LanguageLevel: 2
%%Pages: 1
%%BoundingBox: 0 0 396 396
12 12 scale
2 2 translate
/F { rectfill } def
1 1 1 setrgbcolor
-2 -2 33 33 F
0 0 0 setrgbcolor
0 28 1 1 F
1 28 1 1 F
2 28 1 1 F
3 28 1 1 F
4 28 1 1 F
5 28 1 1 F
6 28 1 1 F
10 28 1 1 F
11 28 1 1 F
12 28 1 1 F
13 28 1 1 F
16 28 1 1 F
17 28 1 1 F
18 28 1 1 F
20 28 1 1 F
22 28 1 1 F
23 28 1 1 F
24 28 1 1 F
25 28 1 1 F
26 28 1 1 F
27 28 1 1 F
28 28 1 1 F
0 27 1 1 F
6 27 1 1 F
8 27 1 1 F
9 27 1 1 F
10 27 1 1 F
12 27 1 1 F
17 27 1 1 F
18 27 1 1 F
19 27 1 1 F
22 27 1 1 F
28 27 1 1 F
0 26 1 1 F
2 26 1 1 F
3 26 1 1 F
4 26 1 1 F
6 26 1 1 F
11 26 1 1 F
13 26 1 1 F
14 26 1 1 F
15 26 1 1 F
16 26 1 1 F
17 26 1 1 F
20 26 1 1 F
22 26 1 1 F
24 26 1 1 F
25 26 1 1 F
26 26 1 1 F
28 26 1 1 F
0 25 1 1 F
2 25 1 1 F
3 25 1 1 F
4 25 1 1 F
6 25 1 1 F
9 25 1 1 F
11 25 1 1 F
15 25 1 1 F
16 25 1 1 F
18 25 1 1 F
19 25 1 1 F
20 25 1 1 F
22 25 1 1 F
24 25 1 1 F
25 25 1 1 F
26 25 1 1 F
28 25 1 1 F
0 24 1 1 F
2 24 1 1 F
3 24 1 1 F
4 24 1 1 F
6 24 1 1 F
9 24 1 1 F
10 24 1 1 F
11 24 1 1 F
12 24 1 1 F
13 24 1 1 F
14 24 1 1 F
17 24 1 1 F
18 24 1 1 F
22 24 1 1 F
24 24 1 1 F
25 24 1 1 F
26 24 1 1 F
28 24 1 1 F
0 23 1 1 F
6 23 1 1 F
8 23 1 1 F
9 23 1 1 F
10 23 1 1 F
11 23 1 1 F
12 23 1 1 F
13 23 1 1 F
17 23 1 1 F
19 23 1 1 F
20 23 1 1 F
22 23 1 1 F
28 23 1 1 F
0 22 1 1 F
1 22 1 1 F
2 22 1 1 F
3 22 1 1 F
4 22 1 1 F
5 22 1 1 F
6 22 1 1 F
8 22 1 1 F
10 22 1 1 F
12 22 1 1 F
14 22 1 1 F
16 22 1 1 F
18 22 1 1 F
20 22 1 1 F
22 22 1 1 F
23 22 1 1 F
24 22 1 1 F
25 22 1 1 F
26 22 1 1 F
27 22 1 1 F
28 22 1 1 F
8 21 1 1 F
9 21 1 1 F
12 21 1 1 F
13 21 1 1 F
14 21 1 1 F
16 21 1 1 F
17 21 1 1 F
18 21 1 1 F
19 21 1 1 F
20 21 1 1 F
4 20 1 1 F
5 20 1 1 F
6 20 1 1 F
7 20 1 1 F
9 20 1 1 F
10 20 1 1 F
11 20 1 1 F
13 20 1 1 F
14 20 1 1 F
16 20 1 1 F
18 20 1 1 F
20 20 1 1 F
22 20 1 1 F
23 20 1 1 F
27 20 1 1 F
0 19 1 1 F
1 19 1 1 F
3 19 1 1 F
5 19 1 1 F
7 19 1 1 F
8 19 1 1 F
11 19 1 1 F
12 19 1 1 F
14 19 1 1 F
15 19 1 1 F
16 19 1 1 F
18 19 1 1 F
21 19 1 1 F
22 19 1 1 F
23 19 1 1 F
24 19 1 1 F
27 19 1 1 F
28 19 1 1 F
2 18 1 1 F
3 18 1 1 F
5 18 1 1 F
6 18 1 1 F
8 18 1 1 F
9 18 1 1 F
11 18 1 1 F
20 18 1 1 F
23 18 1 1 F
24 18 1 1 F
26 18 1 1 F
28 18 1 1 F
0 17 1 1 F
1 17 1 1 F
7 17 1 1 F
8 17 1 1 F
10 17 1 1 F
12 17 1 1 F
16 17 1 1 F
17 17 1 1 F
18 17 1 1 F
19 17 1 1 F
20 17 1 1 F
23 17 1 1 F
25 17 1 1 F
27 17 1 1 F
28 17 1 1 F
2 16 1 1 F
5 16 1 1 F
6 16 1 1 F
9 16 1 1 F
12 16 1 1 F
17 16 1 1 F
20 16 1 1 F
25 16 1 1 F
28 16 1 1 F
1 15 1 1 F
2 15 1 1 F
5 15 1 1 F
7 15 1 1 F
8 15 1 1 F
11 15 1 1 F
13 15 1 1 F
14 15 1 1 F
15 15 1 1 F
16 15 1 1 F
17 15 1 1 F
18 15 1 1 F
22 15 1 1 F
24 15 1 1 F
26 15 1 1 F
28 15 1 1 F
1 14 1 1 F
2 14 1 1 F
3 14 1 1 F
6 14 1 1 F
7 14 1 1 F
8 14 1 1 F
9 14 1 1 F
10 14 1 1 F
13 14 1 1 F
14 14 1 1 F
20 14 1 1 F
21 14 1 1 F
22 14 1 1 F
23 14 1 1 F
24 14 1 1 F
28 14 1 1 F
1 13 1 1 F
2 13 1 1 F
3 13 1 1 F
8 13 1 1 F
9 13 1 1 F
11 13 1 1 F
12 13 1 1 F
14 13 1 1 F
16 13 1 1 F
18 13 1 1 F
20 13 1 1 F
21 13 1 1 F
22 13 1 1 F
23 13 1 1 F
24 13 1 1 F
25 13 1 1 F
28 13 1 1 F
0 12 1 1 F
2 12 1 1 F
5 12 1 1 F
6 12 1 1 F
7 12 1 1 F
8 12 1 1 F
11 12 1 1 F
13 12 1 1 F
14 12 1 1 F
16 12 1 1 F
17 12 1 1 F
19 12 1 1 F
20 12 1 1 F
23 12 1 1 F
0 11 1 1 F
2 11 1 1 F
3 11 1 1 F
5 11 1 1 F
7 11 1 1 F
9 11 1 1 F
10 11 1 1 F
11 11 1 1 F
13 11 1 1 F
16 11 1 1 F
18 11 1 1 F
22 11 1 1 F
23 11 1 1 F
24 11 1 1 F
26 11 1 1 F
28 11 1 1 F
2 10 1 1 F
6 10 1 1 F
8 10 1 1 F
12 10 1 1 F
14 10 1 1 F
16 10 1 1 F
18 10 1 1 F
20 10 1 1 F
24 10 1 1 F
25 10 1 1 F
26 10 1 1 F
28 10 1 1 F
2 9 1 1 F
3 9 1 1 F
7 9 1 1 F
11 9 1 1 F
12 9 1 1 F
15 9 1 1 F
16 9 1 1 F
18 9 1 1 F
19 9 1 1 F
24 9 1 1 F
25 9 1 1 F
27 9 1 1 F
28 9 1 1 F
0 8 1 1 F
1 8 1 1 F
2 8 1 1 F
4 8 1 1 F
6 8 1 1 F
7 8 1 1 F
8 8 1 1 F
10 8 1 1 F
11 8 1 1 F
13 8 1 1 F
14 8 1 1 F
15 8 1 1 F
17 8 1 1 F
18 8 1 1 F
19 8 1 1 F
20 8 1 1 F
21 8 1 1 F
22 8 1 1 F
23 8 1 1 F
24 8 1 1 F
25 8 1 1 F
28 8 1 1 F
8 7 1 1 F
10 7 1 1 F
11 7 1 1 F
13 7 1 1 F
16 7 1 1 F
18 7 1 1 F
19 7 1 1 F
20 7 1 1 F
24 7 1 1 F
26 7 1 1 F
28 7 1 1 F
0 6 1 1 F
1 6 1 1 F
2 6 1 1 F
3 6 1 1 F
4 6 1 1 F
5 6 1 1 F
6 6 1 1 F
8 6 1 1 F
10 6 1 1 F
12 6 1 1 F
13 6 1 1 F
15 6 1 1 F
16 6 1 1 F
19 6 1 1 F
20 6 1 1 F
22 6 1 1 F
24 6 1 1 F
28 6 1 1 F
0 5 1 1 F
6 5 1 1 F
8 5 1 1 F
9 5 1 1 F
11 5 1 1 F
16 5 1 1 F
19 5 1 1 F
20 5 1 1 F
24 5 1 1 F
25 5 1 1 F
27 5 1 1 F
28 5 1 1 F
0 4 1 1 F
2 4 1 1 F
3 4 1 1 F
4 4 1 1 F
6 4 1 1 F
8 4 1 1 F
11 4 1 1 F
13 4 1 1 F
14 4 1 1 F
15 4 1 1 F
16 4 1 1 F
17 4 1 1 F
18 4 1 1 F
19 4 1 1 F
20 4 1 1 F
21 4 1 1 F
22 4 1 1 F
23 4 1 1 F
24 4 1 1 F
28 4 1 1 F
0 3 1 1 F
2 3 1 1 F
3 3 1 1 F
4 3 1 1 F
6 3 1 1 F
9 3 1 1 F
11 3 1 1 F
14 3 1 1 F
15 3 1 1 F
17 3 1 1 F
21 3 1 1 F
23 3 1 1 F
25 3 1 1 F
26 3 1 1 F
27 3 1 1 F
0 2 1 1 F
2 2 1 1 F
3 2 1 1 F
4 2 1 1 F
6 2 1 1 F
9 2 1 1 F
10 2 1 1 F
13 2 1 1 F
14 2 1 1 F
15 2 1 1 F
18 2 1 1 F
19 2 1 1 F
23 2 1 1 F
25 2 1 1 F
26 2 1 1 F
27 2 1 1 F
28 2 1 1 F
0 1 1 1 F
6 1 1 1 F
9 1 1 1 F
10 1 1 1 F
11 1 1 1 F
13 1 1 1 F
16 1 1 1 F
18 1 1 1 F
20 1 1 1 F
23 1 1 1 F
25 1 1 1 F
27 1 1 1 F
28 1 1 1 F
0 0 1 1 F
1 0 1 1 F
2 0 1 1 F
3 0 1 1 F
4 0 1 1 F
5 0 1 1 F
6 0 1 1 F
11 0 1 1 F
13 0 1 1 F
14 0 1 1 F
20 0 1 1 F
22 0 1 1 F
24 0 1 1 F
25 0 1 1 F
27 0 1 1 F
%%EOF